{
    "results": [
        {
            "vote_count": 8,
            "id": 480042,
            "video": false,
            "vote_average": 4.6,
            "title": "Escape Plan: The Extractors",
            "popularity": 87.599,
            "poster_path": "/Au7tg0IcN9SDTEi2tlJwxB9RLYt.jpg",
            "original_language": "en",
            "original_title": "Escape Plan: The Extractors",
            "genre_ids": [
                28,
                53
            ],
            "backdrop_path": "/ygWKYTu7OnZKF9H5NsgjL9iURGV.jpg",
            "adult": false,
            "overview": "TBD: The daughter of a Hong Kong tech executive goes missing in what appears to be a routine ransom job. As Breslin and his crew delve deeper, they discover the culprit is the deranged son of one of their former foes, who also kidnapped Breslin's love and is holding her inside the massive prison known as Devil's Station.",
            "release_date": "2019-06-20"
        },
        {
            "vote_count": 40,
            "id": 533642,
            "video": false,
            "vote_average": 5.5,
            "title": "Child's Play",
            "popularity": 81.863,
            "poster_path": "/Y6VAJ21VjNtLmoTKYIXfbilfdI.jpg",
            "original_language": "en",
            "original_title": "Child's Play",
            "genre_ids": [
                27
            ],
            "backdrop_path": "/1TMdk250An49gSLUZNUnXKqXzmE.jpg",
            "adult": false,
            "overview": "The story follows a mother named Karen, who gives her son Andy a toy doll for his birthday, unaware of its sinister nature.",
            "release_date": "2019-06-19"
        },
        {
            "vote_count": 0,
            "id": 429617,
            "video": false,
            "vote_average": 0,
            "title": "Spider-Man: Far from Home",
            "popularity": 71.521,
            "poster_path": "/dzg8lHS78l5Xxpd2EM5H541Qn2s.jpg",
            "original_language": "en",
            "original_title": "Spider-Man: Far from Home",
            "genre_ids": [
                28,
                12,
                878
            ],
            "backdrop_path": "/dihW2yTsvQlust7mSuAqJDtqW7k.jpg",
            "adult": false,
            "overview": "Peter Parker and his friends go on a summer trip to Europe. However, they will hardly be able to rest - Peter will have to agree to help Nick Fury uncover the mystery of creatures that cause natural disasters and destruction throughout the continent.",
            "release_date": "2019-06-28"
        },
        {
            "vote_count": 157,
            "id": 412117,
            "video": false,
            "vote_average": 6.4,
            "title": "The Secret Life of Pets 2",
            "popularity": 63.843,
            "poster_path": "/q3mKnSkzp1doIsCye6ap4KIUAbu.jpg",
            "original_language": "en",
            "original_title": "The Secret Life of Pets 2",
            "genre_ids": [
                12,
                16,
                35,
                10751
            ],
            "backdrop_path": "/etaok7q2E5tV36oXe7GQzhUQ4fX.jpg",
            "adult": false,
            "overview": "What happens with our pets when we’re not home? This movie continues the original movie with Max and his friends.",
            "release_date": "2019-05-24"
        },
        {
            "vote_count": 184,
            "id": 502416,
            "video": false,
            "vote_average": 5.6,
            "title": "Ma",
            "popularity": 57.925,
            "poster_path": "/6n7ASmQ1wY2cxTubFFGlcvPpyk7.jpg",
            "original_language": "en",
            "original_title": "Ma",
            "genre_ids": [
                53,
                27
            ],
            "backdrop_path": "/mBOv5YrX5QGr5CusK0PKSHuxOt9.jpg",
            "adult": false,
            "overview": "Sue Ann is a loner who keeps to herself in her quiet Ohio town. One day, she is asked by Maggie, a new teenager in town, to buy some booze for her and her friends, and Sue Ann sees the chance to make some unsuspecting, if younger, friends of her own.",
            "release_date": "2019-05-29"
        },
        {
            "vote_count": 8,
            "id": 484641,
            "video": false,
            "vote_average": 4.7,
            "title": "Anna",
            "popularity": 40.141,
            "poster_path": "/exTOQMsl6sMntASQZWLhjghzVGx.jpg",
            "original_language": "en",
            "original_title": "Anna",
            "genre_ids": [
                53,
                28
            ],
            "backdrop_path": "/cPBRSBlvDOhQV3Szrb5inzCEpCg.jpg",
            "adult": false,
            "overview": "Beneath Anna Poliatova's striking beauty lies a secret that will unleash her indelible strength and skill to become one of the world's most feared government assassins.",
            "release_date": "2019-06-20"
        },
        {
            "vote_count": 1,
            "id": 521029,
            "video": false,
            "vote_average": 9,
            "title": "Annabelle Comes Home",
            "popularity": 38.929,
            "poster_path": "/jsbt03UnPPt14AYRMcGaoqtwNxQ.jpg",
            "original_language": "en",
            "original_title": "Annabelle Comes Home",
            "genre_ids": [
                27
            ],
            "backdrop_path": "/4DHHymlttV0YskaxoWtuIDNDhPl.jpg",
            "adult": false,
            "overview": "Determined to keep Annabelle from wreaking more havoc, demonologists Ed and Lorraine Warren bring the possessed doll to the locked artifacts room in their home, placing her “safely” behind sacred glass and enlisting a priest’s holy blessing. But an unholy night of horror awaits as Annabelle awakens the evil spirits in the room, who all set their sights on a new target—the Warrens' ten-year-old daughter, Judy, and her friends.",
            "release_date": "2019-06-26"
        },
        {
            "vote_count": 225,
            "id": 535581,
            "video": false,
            "vote_average": 5.8,
            "title": "The Dead Don't Die",
            "popularity": 38.062,
            "poster_path": "/ycMSfP8KRFsVUWfbSxSFpD97QfD.jpg",
            "original_language": "en",
            "original_title": "The Dead Don't Die",
            "genre_ids": [
                35,
                27
            ],
            "backdrop_path": "/cXyfAViYly0Lk2CVpEKgYbt9wKQ.jpg",
            "adult": false,
            "overview": "In a small peaceful town, zombies suddenly rise to terrorize the town. Now three bespectacled police officers and a strange Scottish morgue expert must band together to defeat the undead.",
            "release_date": "2019-05-15"
        },
        {
            "vote_count": 284,
            "id": 505600,
            "video": false,
            "vote_average": 7.3,
            "title": "Booksmart",
            "popularity": 27.196,
            "poster_path": "/2aSxRDmisJP90H3S0aocyuQIe4z.jpg",
            "original_language": "en",
            "original_title": "Booksmart",
            "genre_ids": [
                35
            ],
            "backdrop_path": "/wcAqndL2MkIjPrCrYeuE794weNE.jpg",
            "adult": false,
            "overview": "Two academic teenage superstars realize, on the eve of their high school graduation, that they should have worked less and played more. Determined to never fall short of their peers, the girls set out on a mission to cram four years of fun into one night.",
            "release_date": "2019-05-24"
        },
        {
            "vote_count": 170,
            "id": 496243,
            "video": false,
            "vote_average": 8.9,
            "title": "Parasite",
            "popularity": 25.944,
            "poster_path": "/7IiTTgloJzvGI1TAYymCfbfl3vT.jpg",
            "original_language": "ko",
            "original_title": "기생충",
            "genre_ids": [
                18,
                53
            ],
            "backdrop_path": "/ny5aCtglk2kceGAuAdiyqbhBBAf.jpg",
            "adult": false,
            "overview": "All unemployed, Ki-taek's family takes peculiar interest in the wealthy and glamorous Parks for their livelihood until they get entangled in an unexpected incident.",
            "release_date": "2019-05-30"
        },
        {
            "vote_count": 8,
            "id": 515195,
            "video": false,
            "vote_average": 7.3,
            "title": "Yesterday",
            "popularity": 24.12,
            "poster_path": "/gAwTexdoUTmXUghkTbbK5IFrotF.jpg",
            "original_language": "en",
            "original_title": "Yesterday",
            "genre_ids": [
                35,
                10402,
                10749
            ],
            "backdrop_path": "/3Hzq4qqrJe4Gwj3c2mM5hIe943l.jpg",
            "adult": false,
            "overview": "A struggling musician realizes he's the only person on Earth who can remember The Beatles.",
            "release_date": "2019-06-27"
        },
        {
            "vote_count": 343,
            "id": 505436,
            "video": false,
            "vote_average": 6,
            "title": "Serial (Bad) Weddings 2",
            "popularity": 23.708,
            "poster_path": "/1ElH1Jd9dTKzpm81BYOPJQExXzz.jpg",
            "original_language": "fr",
            "original_title": "Qu'est-ce qu'on a encore fait au bon Dieu ?",
            "genre_ids": [
                35
            ],
            "backdrop_path": "/mCb3FjW9p2Fl1QZU69uqt5r7n2N.jpg",
            "adult": false,
            "overview": "Claude and Marie Verneuil face a new crisis. The four spouses of their daughters, David, Rachid, Chao and Charles decided to leave France for various reasons. Here they are imagining their lives elsewhere.",
            "release_date": "2019-01-30"
        },
        {
            "vote_count": 144,
            "id": 411728,
            "video": false,
            "vote_average": 7.1,
            "title": "The Professor and the Madman",
            "popularity": 23.215,
            "poster_path": "/gtGCDLhfjW96qVarwctnuTpGOtD.jpg",
            "original_language": "en",
            "original_title": "The Professor and the Madman",
            "genre_ids": [
                18,
                36,
                9648,
                53
            ],
            "backdrop_path": "/zhNfM1CSQqJtIqelwlK9iKtSd9P.jpg",
            "adult": false,
            "overview": "Professor James Murray begins work compiling words for the first edition of the Oxford English Dictionary in the mid 19th century, and receives over 10,000 entries from a patient at Broadmoor Criminal Lunatic Asylum, Dr. William Minor.",
            "release_date": "2019-03-07"
        },
        {
            "vote_count": 2196,
            "id": 447200,
            "video": false,
            "vote_average": 6.1,
            "title": "Skyscraper",
            "popularity": 22.267,
            "poster_path": "/5LYSsOPzuP13201qSzMjNxi8FxN.jpg",
            "original_language": "en",
            "original_title": "Skyscraper",
            "genre_ids": [
                28
            ],
            "backdrop_path": "/oMKFQmoVgB69fyXfSMu0lGlHJP2.jpg",
            "adult": false,
            "overview": "Framed and on the run, a former FBI agent must save his family from a blazing fire in the world's tallest building.",
            "release_date": "2018-07-11"
        },
        {
            "vote_count": 0,
            "id": 420818,
            "video": false,
            "vote_average": 0,
            "title": "The Lion King",
            "popularity": 21.854,
            "poster_path": "/dzBtMocZuJbjLOXvrl4zGYigDzh.jpg",
            "original_language": "en",
            "original_title": "The Lion King",
            "genre_ids": [
                12,
                16,
                10751,
                18
            ],
            "backdrop_path": "/1TUg5pO1VZ4B0Q1amk3OlXvlpXV.jpg",
            "adult": false,
            "overview": "Simba idolises his father, King Mufasa, and takes to heart his own royal destiny. But not everyone in the kingdom celebrates the new cub's arrival. Scar, Mufasa's brother—and former heir to the throne—has plans of his own. The battle for Pride Rock is ravaged with betrayal, tragedy and drama, ultimately resulting in Simba's exile. With help from a curious pair of newfound friends, Simba will have to figure out how to grow up and take back what is rightfully his.",
            "release_date": "2019-07-12"
        },
        {
            "vote_count": 70,
            "id": 500904,
            "video": false,
            "vote_average": 5.1,
            "title": "A Vigilante",
            "popularity": 21.816,
            "poster_path": "/53QtZhtuw0aKu14DukYTtVtcrES.jpg",
            "original_language": "en",
            "original_title": "A Vigilante",
            "genre_ids": [
                53,
                18
            ],
            "backdrop_path": "/kReEky4XRCAq22H5V37kDcNY9dj.jpg",
            "adult": false,
            "overview": "A once-abused woman devotes herself to ridding victims of their domestic abusers while hunting down the one she must kill to be truly free.",
            "release_date": "2019-03-29"
        },
        {
            "vote_count": 339,
            "id": 452832,
            "video": false,
            "vote_average": 5.1,
            "title": "Serenity",
            "popularity": 21.508,
            "poster_path": "/hgWAcic93phg4DOuQ8NrsgQWiqu.jpg",
            "original_language": "en",
            "original_title": "Serenity",
            "genre_ids": [
                53
            ],
            "backdrop_path": "/oOROXoQ402tHgK6NowmMUSLffkW.jpg",
            "adult": false,
            "overview": "Baker Dill is a fishing boat captain leading tours off a tranquil, tropical enclave called Plymouth Island. His quiet life is shattered, however, when his ex-wife Karen tracks him down with a desperate plea for help.",
            "release_date": "2019-01-24"
        },
        {
            "vote_count": 2,
            "id": 480001,
            "video": false,
            "vote_average": 0,
            "title": "The Art of Self-Defense",
            "popularity": 20.156,
            "poster_path": "/aQ5u8vJCvT6uaMoRt3gW5WjInfd.jpg",
            "original_language": "en",
            "original_title": "The Art of Self-Defense",
            "genre_ids": [
                35
            ],
            "backdrop_path": "/c8COLTqxc6gsSRgjdsXIw0dJbAg.jpg",
            "adult": false,
            "overview": "Casey is attacked at random on the street and enlists in a local dojo led by a charismatic and mysterious Sensei in an effort to learn how to defend himself. What he uncovers is a sinister world of fraternity, violence and hypermasculinity and a woman fighting for her place in it.",
            "release_date": "2019-07-12"
        },
        {
            "vote_count": 136,
            "id": 459992,
            "video": false,
            "vote_average": 6.8,
            "title": "Long Shot",
            "popularity": 19.268,
            "poster_path": "/m2ttWZ8rMRwIMT7zA48Jo6mTkDS.jpg",
            "original_language": "en",
            "original_title": "Long Shot",
            "genre_ids": [
                35,
                10749
            ],
            "backdrop_path": "/88r25ghJzVYKq0vaOApqEOZsQlD.jpg",
            "adult": false,
            "overview": "When Fred Flarsky reunites with his first crush, one of the most influential women in the world, Charlotte Field, he charms her. As she prepares to make a run for the Presidency, Charlotte hires Fred as her speechwriter and sparks fly.",
            "release_date": "2019-05-02"
        },
        {
            "vote_count": 30,
            "id": 494974,
            "video": false,
            "vote_average": 6.2,
            "title": "Red Joan",
            "popularity": 19.046,
            "poster_path": "/rMgXlcviL4vJFjuHoMl8vtymV4u.jpg",
            "original_language": "en",
            "original_title": "Red Joan",
            "genre_ids": [
                53,
                18
            ],
            "backdrop_path": "/98qzwTWn5frqJqbeOh5oMwRSlnW.jpg",
            "adult": false,
            "overview": "The story of Joan Stanley, who was exposed as the KGB's longest-serving British spy. The English-born, Soviet and communist party sympathiser—and British government civil servant—was recruited by the KGB in the mid-1930s, and then successfully transferred nuclear bomb secrets to the Soviet Union, enabling it to keep up with the west in the development of atomic weapons. Joan remained undetected as a spy for over a half a century.",
            "release_date": "2019-04-18"
        }
    ],
    "page": 1,
    "total_results": 183,
    "dates": {
        "maximum": "2019-07-14",
        "minimum": "2019-06-29"
    },
    "total_pages": 10
}
